﻿Kast;Terning_4;Terning_6;Terning_8
1;1;6;4
2;4;5;1
3;2;5;6
4;2;1;5
5;4;5;8
6;4;2;2
7;3;1;3
8;2;2;4
9;1;1;1
10;3;6;7
11;1;5;8
12;3;3;5
13;4;3;2
14;2;4;4
15;2;6;6
16;3;6;8
17;4;2;6
18;2;5;5
19;2;2;4
20;3;5;5
21;2;3;4
22;4;1;2
23;4;5;6
24;1;2;8
25;3;3;1
26;2;3;2
27;2;6;1
28;2;2;7
29;2;2;6
30;2;4;4
31;2;2;8
32;1;6;4
33;1;4;4
34;1;1;2
35;4;3;1
36;1;4;3
37;3;5;6
38;2;3;4
39;1;3;6
40;3;2;3
41;1;6;7
42;4;6;6
43;4;1;8
44;2;1;4
45;1;4;7
46;4;1;2
47;1;6;7
48;1;6;1
49;1;1;2
50;4;2;6
51;2;4;2
52;4;1;4
53;1;6;4
54;1;3;6
55;2;5;1
56;1;1;8
57;2;3;8
58;2;6;7
59;3;4;4
60;1;3;8
61;1;2;3
62;3;2;7
63;2;3;7
64;4;6;8
65;1;6;4
66;2;5;6
67;4;3;5
68;2;1;6
69;1;5;1
70;2;4;6
71;1;1;7
72;1;5;2
73;4;3;4
74;3;2;5
75;2;1;3
76;4;1;4
77;1;3;8
78;1;3;8
79;3;3;6
80;4;4;8
81;4;5;6
82;3;2;3
83;2;1;4
84;3;4;2
85;4;6;3
86;4;2;3
87;3;3;6
88;4;6;2
89;1;2;2
90;2;5;1
91;1;3;7
92;1;4;8
93;1;3;4
94;1;2;3
95;1;4;2
96;4;1;5
97;1;2;6
98;1;2;5
99;1;2;5
100;4;5;7